…
Después de cargar el paquete en memoria, ya no será necesario hacer uso de la notación `nombrepaquete::funcion()`, y podremos hacer uso de sus funciones y datos como cualquier paquete base de R:


```r
births
```

```
## # A tibble: 119 x 2
##     year  births
##    <int>   <int>
##  1  1909 2718000
##  2  1910 2777000
##  3  1911 2809000
##  4  1912 2840000
##  5  1913 2869000
##  6  1914 2966000
##  7  1915 2965000
##  8  1916 2964000
##  9  1917 2944000
## 10  1918 2948000
## # ... with 109 more rows
```
…
