…
## Carga de Paquetes {#carga-de-paquetes}

Una vez tenemos instalado un paquete, estamos en disposiciÃ³n de hacer uso de sus funciones. Si tan solo necesitamos hacer un uso esporÃ¡dico de unas pocas funciones o datos del paquete podemos acceder con la notaciÃ³n `nombrepaquete::nombrefuncion()`. Por ejemplo, siguiendo con el ejemplo anterior del paquete `babynames`, para explorar uno de sus datasets podemos hacer uso de la siguiente instrucciÃ³n:


```r
> babynames::births
```

```
# A tibble: 119 × 2
    year  births
   <int>   <int>
1   1909 2718000
2   1910 2777000
3   1911 2809000
4   1912 2840000
5   1913 2869000
6   1914 2966000
7   1915 2965000
8   1916 2964000
9   1917 2944000
10  1918 2948000
# ... with 109 more rows
```
…
